%YAML 1.1
%TAG !u! tag:unity3d.com,2011:
--- !u!114 &11400000
MonoBehaviour:
  m_ObjectHideFlags: 0
  m_CorrespondingSourceObject: {fileID: 0}
  m_PrefabInstance: {fileID: 0}
  m_PrefabAsset: {fileID: 0}
  m_GameObject: {fileID: 0}
  m_Enabled: 1
  m_EditorHideFlags: 0
  m_Script: {fileID: 11500000, guid: fc5258b175fc707428ebea19bdf67845, type: 3}
  m_Name: bulletInfo
  m_EditorClassIdentifier: 
  playerPos: {x: 18.054874, y: -1.816226, z: 0}
  bulletVelocity: 3
