%YAML 1.1
%TAG !u! tag:unity3d.com,2011:
--- !u!114 &11400000
MonoBehaviour:
  m_ObjectHideFlags: 0
  m_CorrespondingSourceObject: {fileID: 0}
  m_PrefabInstance: {fileID: 0}
  m_PrefabAsset: {fileID: 0}
  m_GameObject: {fileID: 0}
  m_Enabled: 1
  m_EditorHideFlags: 0
  m_Script: {fileID: 11500000, guid: bc4df2b2cb8b0d5448dd0feeafff9e34, type: 3}
  m_Name: Turret2
  m_EditorClassIdentifier: 
  moveSpeed: 0
  activated: 1
  disabled: 0
  trueDisabled: 0
  reloadSpeed: 1.5
