%YAML 1.1
%TAG !u! tag:unity3d.com,2011:
--- !u!114 &11400000
MonoBehaviour:
  m_ObjectHideFlags: 0
  m_CorrespondingSourceObject: {fileID: 0}
  m_PrefabInstance: {fileID: 0}
  m_PrefabAsset: {fileID: 0}
  m_GameObject: {fileID: 0}
  m_Enabled: 1
  m_EditorHideFlags: 0
  m_Script: {fileID: 11500000, guid: 4f6a66d4da4df0d4baad8a86083d1512, type: 3}
  m_Name: PlayerStats
  m_EditorClassIdentifier: 
  moveSpeed: 20
  jumpForce: 20
  jumpsAvailable: 2
  defense: 0
